1 10 20
10 1 20
1 2 2
2 1 2
2 3 8
3 2 8
3 7 17
7 3 17
7 8 17
8 7 17
7 9 20
9 7 20
7 10 20
10 7 20
100 200 125
201 210 89
900 1000 174
10 20 21
20 40 112
40 50 110
50 70 113
70 100 119
75 100 119
80 100 119
85 100 119
90 100 119
91 100 119
92 100 119
93 100 119
94 100 119
95 100 119
96 100 119
97 100 119
98 100 26
99 100 26
100 150 122
150 200 125
150 210 125
150 220 125
150 230 125
150 240 128
150 250 128
200 205 40
200 206 89
200 207 89
200 208 89
200 209 89
200 210 89
234 235 128
235 236 128
236 237 35
238 239 53
239 240 53
299 300 118
300 301 17
300 302 17
300 303 43
300 304 43
300 305 43
300 305 43
300 310 87
301 311 87
311 321 131
321 331 144
331 341 113
341 351 126
351 361 126
361 371 95
371 381 108
381 391 121
391 399 121
391 400 121
411 422 134
422 433 116
444 455 116
466 477 129
477 488 142
488 499 142
500 550 137
500 600 137
500 650 145
500 700 145
500 750 171
500 800 171
500 850 171
500 900 179
500 950 179
500 1000 179
600 618 132
621 638 132
631 649 145
643 644 101
652 667 145
668 669 70
672 683 114
681 693 127
693 700 127
712 892 179
784 891 179
732 865 153
738 835 153
716 872 179
872 900 148
903 933 130
933 963 174
963 966 50
966 996 143
996 966 143
996 999 50
999 1000 112
1000 1050 156
1000 1051 156
1000 1052 156
1000 1053 156
1000 1054 156
1000 1055 169
1000 500 179
1055 1000 169
