...............
----------------------------------------------------------------------
Ran 15 tests in 0.031s
OK
Name             Stmts   Miss Branch BrPart  Cover   Missing
------------------------------------------------------------
Collatz.py          36      1     14      0    98%   69
TestCollatz.py      67      0      0      0   100%
------------------------------------------------------------
TOTAL              103      1     14      0    99%
