1 10 20
100 200 125
201 210 89
900 1000 174
1 25000 282
25001 50000 324
50001 75000 340
75001 100000 351
100001 125000 354
125001 150000 375
150001 175000 383
175001 200000 365
200001 225000 386
225001 250000 443
250001 275000 407
275001 300000 389
300001 325000 384
325001 350000 441
350001 375000 410
375001 400000 436
400001 425000 449
425001 450000 400
450001 475000 444
475001 500000 426
500001 525000 470
525001 550000 452
550001 575000 421
575001 600000 434
600001 625000 447
625001 650000 509
650001 675000 442
675001 700000 442
700001 725000 504
725001 750000 424
750001 775000 468
775001 800000 468
800001 825000 450
825001 850000 525
850001 875000 432
875001 900000 445
900001 925000 476
925001 950000 507
950001 975000 458
975001 999999 440
1 1 1
999999 999999 259
9 10 20
8 9 20
25000 25001 127
900002 999999 507
100000 100001 129
206 207 89
200000 400000 443
199999 400001 443
199999 399999 443
200001 399999 443
200001 400000 443
200000 399999 443
1 999999 525
2 999998 525
999998 1 525
50000 25000 324
598374 324878 470
213872 231874 443
938428 134827 525
678247 238471 509
293481 7 443
45 887382 525
19284 283478 443
24999 50002 324
24999 50001 324
99 99999 351
249999 300007 407
199994 267000 443
823977 976894 525
825002 849999 525
873420 12489 525
291472 123194 443
999214 214999 525
9124 250001 443
123032 24888 354
12049 250000 443
8 21244 279
743000 749999 393
500000 999999 525
500000 1 449
500001 1 449
500001 999999 525
500002 999999 525
500002 750001 509
98 151 122
499324 497892 351
128972 923582 525
888888 888888 119
888888 888889 119
988888 888889 507
2 1 2
2 3 8
1 3 8
999997 999999 259
999997 999998 259
303948 687382 509
598092 897234 525
783674 673482 504
290814 542897 470
401348 249018 441
29182 134821 354
192843 12000 383
2 23 21
12389 12 268
129038 429109 449
432958 102938 449
