1 10 20
100 200 125
201 210 89
900 1000 174
289602 87350 443
90538 964888 525
238670 662713 509
273948 551035 470
808588 983085 525
703907 827945 504
202072 657986 509
624223 376516 470
660937 81436 509
23261 941309 525
208499 568823 470
760722 119225 509
978603 972385 383
801394 473270 509
747164 826606 468
892878 788231 525
60346 813886 509
795730 811199 468
508200 245195 449
469075 792080 509
100286 890172 525
882547 329214 525
783176 565406 509
16434 284541 443
48704 432380 449
894525 889640 370
450667 348724 449
611634 144722 470
297848 660662 509
446956 859611 525
788985 808190 468
546461 771083 509
430063 734311 509
669903 784312 504
616806 137840 470
265633 47206 443
38642 176941 383
461312 873198 525
35982 768708 509
160176 509589 449
356682 398921 436
862806 83444 525
853394 793957 525
447304 353988 449
765511 57132 509
572873 22967 470
403647 970946 525
970700 500321 525
316690 770394 509
944555 269709 525
540391 842632 525
619283 717427 509
752029 585459 509
633880 816849 504
901627 820032 525
185671 697238 509
892378 432558 525
87699 634541 509
245477 984075 525
462659 534171 470
806817 72990 509
854296 634135 525
323794 162080 443
958689 53619 525
322875 327404 384
568595 743475 509
23576 271214 443
30107 128016 354
67208 158187 383
82525 597051 470
637707 212404 509
28478 873076 525
901845 452847 525
366068 497798 449
24129 672946 509
483889 79978 449
720703 754792 424
263994 982262 525
202455 192383 360
307454 426530 449
425744 12050 449
513516 62236 470
55486 670989 509
289249 734691 509
396284 529830 470
734037 419808 509
103256 356926 443
88556 304683 443
45606 338128 443
690735 918313 525
414699 695551 509
835697 200340 509
163033 400761 443
975799 409376 525
292829 65520 443
786727 90064 509
843044 68548 525
736858 164773 509
162206 262547 443
953458 58023 525
195461 325353 443
125407 529843 470
452712 385032 449
163472 778987 509
410113 994729 525
73852 364662 443
755315 339507 509
194146 103141 383
280357 703988 509
240202 689112 509
9747 913454 525
491379 361923 449
327698 387329 441
138026 448483 449
115232 494956 449
366237 501431 449
803979 430914 509
376240 646882 509
