1 10 20
100 200 125
201 210 89
900 1000 174
0 0 1
1000 800 179
750 750 47
4696 74091 340
43505 28369 324
82155 48117 351
37215 64099 340
61709 94829 351
96166 76017 351
96218 69973 351
81228 15382 351
4744 68394 340
54349 61200 335
59276 70241 335
80212 60193 351
54680 28607 340
29681 82648 351
88766 18673 351
96070 53001 351
70453 37896 340
73241 79014 351
48765 12011 324
92906 56268 351
54054 25844 340
64080 74144 325
98460 89345 333
89281 16792 351
67503 35709 340
27895 35109 311
73898 94992 351
37923 62500 340
85743 28816 351
28497 26904 259
20710 33807 308
81152 30303 351
12518 77167 351
10973 7670 268
45626 19833 324
80866 85798 320
83229 94469 333
31889 89240 351
56513 68656 335
98270 36401 351
96940 15401 351
61904 51229 340
75028 32495 340
34461 51652 324
77754 13907 351
12281 10457 268
79758 90631 333
29729 41058 324
17447 71320 340
36749 32505 324
97131 15457 351
47321 55849 340
26213 81426 351
56402 12658 340
76098 47492 340
24471 36687 324
46949 26170 324
10230 63401 340
70980 91067 351
36228 277 324
50021 59812 340
25055 64436 340
63646 23221 340
16992 31396 308
59827 49552 340
18473 21878 274
39100 1771 324
31368 33581 285
22867 8047 279
37593 6587 324
49116 50684 296
52918 53153 278
51112 62803 340
9403 48473 324
19583 57645 340
81398 89015 333
84889 74428 351
4296 88917 351
69630 20778 340
6930 59026 340
33379 61493 340
91500 67886 351
66551 40353 340
76796 99398 351
8956 68481 340
17301 46434 324
44341 37828 306
15876 39563 324
49415 41843 314
26608 14770 282
27151 54559 340
97404 61883 351
50417 68113 340
74056 714 340
29689 97544 351
40126 19622 324
89771 19822 351
80677 22441 351
62028 20829 340
77141 68823 351
