......................
----------------------------------------------------------------------
Ran 22 tests in 15.589s

OK
Name             Stmts   Miss  Cover   Missing
----------------------------------------------
Collatz.py          63      0   100%
TestCollatz.py      87      0   100%
----------------------------------------------
TOTAL              150      0   100%
